…
Les equipe qui semblent constantes et qui scorent le plus sont: GER, NOR, USA.

Focalisons sur ces 3 pays.

```r
# Utilisation de filter pour selectionner les 3 teams.
b= wwc_outcomes %>%
        filter(team == 'USA'|team == 'GER' | team == 'NOR' )
b
```

```
## # A tibble: 134 x 7
##     year team  score round         yearly_game_id team_num win_status
##    <dbl> <chr> <dbl> <chr>                  <dbl>    <dbl> <chr>     
##  1  1991 NOR       0 Group                      1        2 Lost      
##  2  1991 GER       4 Group                      4        1 Won       
##  3  1991 USA       3 Group                      5        2 Won       
##  4  1991 NOR       4 Group                      7        1 Won       
##  5  1991 USA       5 Group                     11        2 Won       
##  6  1991 GER       3 Group                     12        2 Won       
##  7  1991 USA       3 Group                     13        2 Won       
##  8  1991 NOR       2 Group                     16        1 Won       
##  9  1991 GER       1 Group                     18        2 Won       
## 10  1991 USA       7 Quarter Final             20        1 Won       
## # ... with 124 more rows
```
…
	On confirme que ces 3 pays sont constantes pour ce qui est de la participation a cette competion. Elles marquent beaucoup de buts a plusieurs de leurs rencontres. 
	
	Pour team USA quel serait la repartition des scores en fonction des phases de la competion?

```r
a = wwc_outcomes %>%
     select(year, score, team, round)%>%
        filter(team == 'USA')%>%
          arrange(round)

a
```

```
## # A tibble: 50 x 4
##     year score team  round
##    <dbl> <dbl> <chr> <chr>
##  1  1991     2 USA   Final
##  2  1999     0 USA   Final
##  3  2011     2 USA   Final
##  4  2015     5 USA   Final
##  5  2019     2 USA   Final
##  6  1991     3 USA   Group
##  7  1991     5 USA   Group
##  8  1991     3 USA   Group
##  9  1995     3 USA   Group
## 10  1995     2 USA   Group
## # ... with 40 more rows
```
…
